EDI_WKNCH_20151031
TableName	Actflag	Created	Changed	SecID	EffectiveDate	WknChID	Eventtype	RelEventID	OldWKN	NewWKN
WKNCH	I	2015/10/30	2015/10/30	4629582	2015/10/20	43792	CORR			A1Z878
WKNCH	I	2015/10/30	2015/10/30	4629586	2015/10/20	43793	CORR			A1Z84A
WKNCH	I	2015/10/30	2015/10/30	4633999	2015/11/02	43794	CORR			A1Z9N0
WKNCH	I	2015/10/30	2015/10/30	4633895	2015/11/04	43795	CORR			A1Z9QR
WKNCH	I	2015/10/30	2015/10/30	4634634	2015/11/05	43796	CORR			A1Z9TJ
WKNCH	I	2015/10/30	2015/10/30	4634072	2015/11/03	43797	CORR			A16864
WKNCH	I	2015/10/30	2015/10/30	4634813	2015/10/29	43798	CORR			A1Z9T7
EDI_ENDOFFILE
