EDI_SACHG_20151031
TableName	Actflag	Created	Changed	SachgID	ScagyID	SecID	ISIN	EffectiveDate	OldRelationship	NewRelationship	OldAgncyID	NewAgncyID	OldSpStartDate	NewSpStartDate	OldSpEndDate	NewSpEndDate	OldGuaranteeType	NewGuaranteeType
SACHG	I	2015/10/30	2015/10/30	20337	1709970	4628812	KR60082715A8	2015/10/21	PA	PA	27077	31253						
SACHG	I	2015/10/30	2015/10/30	20338	940353	3920782	INE549F08509	2015/10/26	TST	TST	17997	21785						
SACHG	I	2015/10/30	2015/10/30	20339	1010328	3974292	INE549F08517	2015/10/26	TST	TST	17997	21785						
EDI_ENDOFFILE
