EDI_BSCHG_20151031
TableName	Actflag	Created	Changed	BschgID	SecID	ISIN	NotificationDate	OldBondType	NewBondType	OldCurenCD	NewCurenCD	OldPIU	NewPIU	OldInterestBasis	NewInterestBasis	Eventtype	OldInterestCurrency	NewInterestCurrency	OldMaturityCurrency	NewMaturityCurrency	OldIntBusDayConv	NewIntBusDayConv	OldMatBusDayConv	NewMatBusDayConv	Notes
BSCHG	I	2015/10/30	2015/10/30	190468	4633994	US3134G76S53	2015/10/30	BD	MTN	USD	USD			FXD	FXD	CORR	USD	USD	USD	USD	FBD	FBD	FBD	FBD	
BSCHG	I	2015/10/30	2015/10/30	190469	4634715	US3134G76W65	2015/10/30	BD	MTN	USD	USD			SU	SU	CORR	USD	USD	USD	USD	FBD	FBD	FBD	FBD	
BSCHG	I	2015/10/30	2015/10/30	190470	2216948	IT0004645948	2010/10/29	BD	BD	EUR	EUR			FR	FXDFR	CORR	EUR	EUR	EUR	EUR					
BSCHG	I	2015/10/30	2015/10/30	190471	4634811	US3134G77J46	2015/10/30	NT	MTN	USD	USD			FXD	FXD	CORR	USD	USD	USD	USD	FBD	FBD	FBD	FBD	
BSCHG	I	2015/10/30	2015/10/30	190472	4634780	US3134G77D75	2015/10/30	NT	MTN	USD	USD			FXD	FXD	CORR	USD	USD	USD	USD	FBD	FBD	FBD	FBD	
BSCHG	I	2015/10/30	2015/10/30	190473	4634767	US3134G76Z96	2015/10/30	NT	MTN	USD	USD			FXD	FXD	CORR	USD	USD	USD	USD	FBD	FBD	FBD	FBD	
BSCHG	I	2015/10/30	2015/10/30	190474	4634815	US3134G77L91	2015/10/30	NT	MTN	USD	USD			FXD	FXD	CORR	USD	USD	USD	USD	FBD	FBD	FBD	FBD	
BSCHG	I	2015/10/30	2015/10/30	190475	4619258	US3130A6LC95	2015/10/30	BD	BD	USD	USD			FXD	FR	CORR	USD	USD	USD	USD	FBD	FBD	FBD	FBD	
BSCHG	I	2015/10/30	2015/10/30	190476	4012608	US78423A2E12	2011/07/29	NT	NT	USD	USD			FXD	FXDFR	CORR	USD	USD	USD	USD	MFBD	MFBD			
BSCHG	I	2015/10/30	2015/10/30	190477	4618411	US89114QTT57	2015/10/29	NT	NT	USD	USD			FR	FXDFR	CORR	USD	USD	USD	USD					
BSCHG	I	2015/10/30	2015/10/30	190478	4633985	US38148TGJ25	2015/10/29	MTN	NT	USD	USD			SU	SU	CORR	USD	USD	USD	USD					
BSCHG	I	2015/10/30	2015/10/30	190479	4626592	KR60194525A6	2015/10/17	NT	BD	KRW	KRW			FXD	FXD	CORR	KRW	KRW	KRW	KRW					
BSCHG	I	2015/10/30	2015/10/30	190480	4626599	KR60194535A5	2015/10/17	NT	BD	KRW	KRW			FXD	FXD	CORR	KRW	KRW	KRW	KRW					
BSCHG	I	2015/10/30	2015/10/30	190481	3597024	IL0011258220	2012/02/29	BD	BD	ILS	ILS			FR	FXD	CORR	ILS	ILS	ILS	ILS					
BSCHG	I	2015/10/30	2015/10/30	190482	4624670	KR60219635A4	2015/10/15	NT	BD	KRW	KRW			FXD	FXD	CORR	KRW	KRW	KRW	KRW					
BSCHG	I	2015/10/30	2015/10/30	190483	4630310	US3133EFME43	2015/10/29	NT	BD	USD	USD			FXD	FXD	CORR	USD	USD	USD	USD	FBD	FBD	FBD	FBD	
BSCHG	I	2015/10/30	2015/10/30	190484	4112569	UYNA00013UI7	2010/05/27	TBILL	NT	UYU	UYU			FXD	FXD	CORR	UYU	UYU	UYU	UYU					
BSCHG	I	2015/10/30	2015/10/30	190485	4630302	US3133EFMA21	2015/10/29	NT	BD	USD	USD			FXD	FXD	CORR	USD	USD	USD	USD	FBD	FBD	FBD	FBD	
BSCHG	I	2015/10/30	2015/10/30	190486	4632034	JP326497AFB6	2015/10/30	NT	BD	JPY	JPY			FXD	FXD	CORR	JPY	JPY	JPY	JPY					
BSCHG	I	2015/10/30	2015/10/30	190487	4635730	US0258M0EA32	2015/10/30	MTN	NT	USD	USD			FR	FR	CORR	USD	USD	USD	USD					
BSCHG	I	2015/10/30	2015/10/30	190488	4348483	COB51CB00254	2010/02/27	BD	BD	COU	COP			FXD	FXD	CORR	COU	COP	COU	COP					
BSCHG	I	2015/10/30	2015/10/30	190489	4634016	US17298C3N65	2015/10/30	BD	NT	USD	USD			FR	FR	CORR	USD	USD	USD	USD					
BSCHG	I	2015/10/30	2015/10/30	190490	4633993	US38148TGL70	2015/10/29	MTN	MTN	USD	USD			FR	FXDFR	CORR	USD	USD	USD	USD					
BSCHG	I	2015/10/30	2015/10/30	190491	4630306	US3133EFMD69	2015/10/30	NT	BD	USD	USD			FXD	FXD	CORR	USD	USD	USD	USD	FBD	FBD	FBD	FBD	
BSCHG	I	2015/10/30	2015/10/30	190492	4630477	JP351265QFA3	2015/10/30	NT	BD	JPY	JPY			FXD	FXD	CORR	JPY	JPY	JPY	JPY					
BSCHG	I	2015/10/30	2015/10/30	190493	4631997	US61760QHY35	2015/10/29	NT	NT	USD	USD			FR	FXDFR	CORR	USD	USD	USD	USD	FBD	FBD			
BSCHG	U	2015/10/06	2015/10/30	188705	4298213	XS1084023859	2014/07/02	MTN	MTN	USD	USD			FXD	SU	CLEAN	USD	USD	USD	USD					
BSCHG	I	2015/10/30	2015/10/30	190494	4628482	US3133EFLK12	2015/10/27	NT	BD	USD	USD			FR	FR	CORR	USD	USD	USD	USD	FBD	FBD	FBD	FBD	
BSCHG	I	2015/10/30	2015/10/30	190495	1371728	GRC234107781	2015/10/25	BD	BD	EUR	EUR			FXDFR	FXDFRZC	CORR	EUR	EUR	EUR	EUR					
BSCHG	I	2015/10/30	2015/10/30	190496	4633339	US49456B2007	2015/10/29	PRF	PRF	USD	USD	P	P	UNKNOWN	FXD	CORR	USD	USD	USD	USD					
BSCHG	I	2015/10/30	2015/10/30	190497	4406290	XS1153235046	2014/12/13	MTN	MTN	CNY	CNY			FR	FR	CORR	CNY	USD	CNY	USD					
BSCHG	I	2015/10/30	2015/10/30	190498	4407175	XS1155657452	2014/12/18	MTN	MTN	CNY	CNY			FR	FR	CORR	CNY	USD	CNY	USD					
BSCHG	I	2015/10/30	2015/10/30	190499	4633750	SE0007666136	2015/10/23	BD	MTN	SEK	SEK			FXD	FXD	CORR	SEK	SEK	SEK	SEK	FBD	FBD			
BSCHG	I	2015/10/30	2015/10/30	190500	4633233	FR0013029220	2015/10/27	BD	CB	EUR	EUR			FXD	FXD	CORR	EUR	EUR	EUR	EUR	FBD	FBD	FBD	FBD	
BSCHG	I	2015/10/30	2015/10/30	190501	4406300	XS1153234072	2014/12/15	MTN	MTN	CNY	CNY			FR	FR	CORR	CNY	USD	CNY	USD					
BSCHG	I	2015/10/30	2015/10/30	190502	4624677	KR60237815A0	2015/10/16	NT	BD	KRW	KRW			FXD	FXD	CORR	KRW	KRW	KRW	KRW	FBD	FBD	FBD	FBD	
BSCHG	I	2015/10/30	2015/10/30	190503	4592629	XS1135669494	2015/09/01	MTN	MTN	USD	USD			FR	FXD	CORR	USD	USD	USD	USD					
BSCHG	I	2015/10/30	2015/10/30	190504	4483267		2015/04/09	NT	NT	CAD	USD			FXD	FXD	CORR	CAD	USD	CAD	USD					
BSCHG	I	2015/10/30	2015/10/30	190505	4434288	XS1143936810	2015/02/06	MTN	MTN	EUR	USD			FR	FR	CORR	EUR	USD	EUR	USD	FBD	FBD	FBD	FBD	
BSCHG	I	2015/10/30	2015/10/30	190506	4631315	JP2220001FB3	2015/10/30	BD	BD	JPY	JPY			ZC	FXD	CORR			JPY	JPY					
BSCHG	I	2015/10/30	2015/10/30	190507	4394136	XS1143999149	2014/11/29	MTN	MTN	USD	USD			FXD	FR	CORR	USD	USD	USD	USD					
BSCHG	I	2015/10/30	2015/10/30	190508	4631302	JP351265RFA1	2015/10/30	BD	BD	JPY	JPY			ZC	FXD	CORR			JPY	JPY					
BSCHG	I	2015/10/30	2015/10/30	190509	4626807	XS1280092138	2015/10/16	MTN	MTN	EUR	EUR			ZC	FXD	CORR			EUR	EUR					
BSCHG	I	2015/10/30	2015/10/30	190510	4605507	XS1241069233	2015/09/25	BD	BD	EUR	EUR			FXD	FR	CORR	EUR	EUR	EUR	EUR					
BSCHG	I	2015/10/30	2015/10/30	190511	4624048	XS1307337433	2015/10/13	MTN	MTN	JPY	JPY			FXD	FXDFR	CORR	JPY	JPY	JPY	JPY	MFBD	MFBD	MFBD	MFBD	
BSCHG	I	2015/10/30	2015/10/30	190512	4624048	XS1307337433	2015/10/14	MTN	NT	JPY	JPY			FXDFR	FXDFR	CORR	JPY	JPY	JPY	JPY	MFBD	MFBD	MFBD	MFBD	
BSCHG	I	2015/10/30	2015/10/30	190513	4615133	XS1241074233	2015/09/25	BD	BD	USD	USD			FR	FXD	CORR	USD	USD	USD	USD					
BSCHG	I	2015/10/30	2015/10/30	190514	4630635	XS1281759206	2015/10/22	MTN	MTN	NZD	NZD			ZC	FXD	CORR			NZD	NZD					
BSCHG	I	2015/10/30	2015/10/30	190515	4626610	FR0013019510	2015/10/21	MTN	CB	EUR	EUR			FXD	FXD	CORR	EUR	EUR	EUR	EUR	FBD	FBD	FBD	FBD	
BSCHG	I	2015/10/30	2015/10/30	190516	4628722	XS1237852667	2015/10/20	MTN	MTN	USD	USD			ZC	FR	CORR			USD	USD					
BSCHG	I	2015/10/30	2015/10/30	190517	4626820	XS1281771672	2015/10/16	MTN	MTN	JPY	JPY			ZC	FXD	CORR			JPY	JPY					
BSCHG	I	2015/10/30	2015/10/30	190518	4633296	US22546VNM45	2015/10/28	MTN	NT	USD	USD			FR	FR	CORR	USD	USD	USD	USD	MFBD	MFBD			
BSCHG	I	2015/10/30	2015/10/30	190519	4633228	US48125UZ392	2015/10/27	NT	NT	USD	USD			FR	FXDFR	CORR	USD	USD	USD	USD	FBD	FBD	FBD	FBD	
BSCHG	I	2015/10/30	2015/10/30	190520	4633232	US48125UZ889	2015/10/26	NT	NT	USD	USD			FR	FXDFR	CORR	USD	USD	USD	USD					
BSCHG	I	2015/10/30	2015/10/30	190521	4633222	US22546VP596	2015/10/29	MTN	NT	USD	USD			FR	FR	CORR	USD	USD	USD	USD					
BSCHG	I	2015/10/30	2015/10/30	190522	4633226	US22546VN856	2015/10/29	MTN	NT	USD	USD			FR	FR	CORR	USD	USD	USD	USD					
BSCHG	I	2015/10/30	2015/10/30	190523	4633969	US38148T3E70	2015/10/29	MTN	NT	USD	USD			FR	FR	CORR	USD	USD	USD	USD					
BSCHG	I	2015/10/30	2015/10/30	190524	4633969	US38148T3E70	2015/10/30	NT	NT	USD	USD			FR	FXDFR	CORR	USD	USD	USD	USD	FBD	FBD	FBD	FBD	
BSCHG	I	2015/10/30	2015/10/30	190525	4624925	XS1280110484	2015/10/29	MTN	MTN	JPY	JPY			FR	FXD	CORR	JPY	JPY	JPY	JPY					
BSCHG	I	2015/10/30	2015/10/30	190526	4634009	US22546VPM27	2015/10/29	BD	NT	USD	USD			FR	FR	CORR	USD	USD	USD	USD					
BSCHG	I	2015/10/30	2015/10/30	190527	4634037	US22546VPP57	2015/10/29	BD	NT	USD	USD			FR	FR	CORR	USD	USD	USD	USD					
BSCHG	I	2015/10/30	2015/10/30	190528	4627175	XS1309072020	2015/10/21	BD	NT	EUR	EUR			FXD	FXD	CORR	EUR	EUR	EUR	EUR					
BSCHG	I	2015/10/30	2015/10/30	190529	4622360	XS1307366614	2015/10/25	MTN	NT	USD	USD			ZC	ZC	CORR			USD	USD					
BSCHG	I	2015/10/30	2015/10/30	190530	4633290	US22546VND46	2015/10/28	MTN	NT	USD	USD			FR	FR	CORR	USD	USD	USD	USD					
BSCHG	I	2015/10/30	2015/10/30	190531	4623272	US83369EBR09	2015/10/20	MTN	NT	USD	USD			ZC	ZC	CORR			USD	USD					
BSCHG	I	2015/10/30	2015/10/30	190532	4615392	DE000DK0FMV2	2015/07/29	BD	BD	EUR	EUR			FXD	SU	CORR	EUR	EUR	EUR	EUR					
BSCHG	I	2015/10/30	2015/10/30	190533	4615392	DE000DK0FMV2	2015/07/30	BD	NT	EUR	EUR			SU	SU	CORR	EUR	EUR	EUR	EUR					
BSCHG	I	2015/10/30	2015/10/30	190534	4621220	DE000HLB2C18	2015/10/07	BD	BD	EUR	EUR			FXD	SU	CORR	EUR	EUR	EUR	EUR					
BSCHG	I	2015/10/30	2015/10/30	190535	4621224	DE000HLB2C26	2015/10/07	BD	BD	EUR	EUR			FXD	SU	CORR	EUR	EUR	EUR	EUR					
BSCHG	I	2015/10/30	2015/10/30	190536	4630822	XS1312031286	2015/10/28	MTN	MTN	USD	USD			FXD	FR	CORR	USD	USD	USD	USD					
BSCHG	I	2015/10/30	2015/10/30	190537	4630324	XS1312031369	2015/10/28	NT	NT	USD	USD			FXD	FR	CORR	USD	USD	USD	USD					
BSCHG	I	2015/10/30	2015/10/30	190538	4630410	US06366R3Q68	2015/10/28	BD	NT	USD	USD			ZC	ZC	CORR			USD	USD					
BSCHG	I	2015/10/30	2015/10/30	190539	4630417	US06366R3R42	2015/10/29	BD	NT	USD	USD			ZC	ZC	CORR			USD	USD					
EDI_ENDOFFILE
