EDI_BDC_20151031
TableName	Actflag	Created	Changed	BdcID	SecID	ISIN	BDCAppliedTo	CntrID	Notes
BDC	U	2012/05/19	2015/10/30	521358	3815359	XS0786617398	I	1	
BDC	I	2015/10/30	2015/10/30	1064640	4635627	XS1311955329	M	8	
BDC	I	2015/10/30	2015/10/30	1064641	4635627	XS1311955329	M	1	
BDC	I	2015/10/30	2015/10/30	1064642	4635629	IT0005139610	I	10	
BDC	I	2015/10/30	2015/10/30	1064643	4635629	IT0005139610	M	10	
BDC	I	2015/10/30	2015/10/30	1064644	4630960	IT0005139859	I	10	
BDC	I	2015/10/30	2015/10/30	1064645	4630960	IT0005139859	M	10	
BDC	I	2015/10/30	2015/10/30	1064646	4635660	XS1314228062	M	8	
BDC	I	2015/10/30	2015/10/30	1064647	4635660	XS1314228062	M	1	
BDC	I	2015/10/30	2015/10/30	1064648	4635623	XS1309542436	I	1	
BDC	I	2015/10/30	2015/10/30	1064649	4635623	XS1309542436	M	1	
BDC	I	2015/10/30	2015/10/30	1064650	4635623	XS1309542436	I	10	
BDC	I	2015/10/30	2015/10/30	1064651	4635623	XS1309542436	M	10	
BDC	I	2015/10/30	2015/10/30	1064652	4635623	XS1309542436	I	16	
BDC	I	2015/10/30	2015/10/30	1064653	4635623	XS1309542436	M	16	
BDC	I	2015/10/30	2015/10/30	1064654	4635623	XS1309542436	I	30	
BDC	I	2015/10/30	2015/10/30	1064655	4635623	XS1309542436	M	30	
BDC	I	2015/10/30	2015/10/30	1064656	4635623	XS1309542436	M	5	
BDC	I	2015/10/30	2015/10/30	1064657	4635623	XS1309542436	I	5	
BDC	I	2015/10/30	2015/10/30	1064658	4635623	XS1309542436	I	25	
BDC	I	2015/10/30	2015/10/30	1064659	4635623	XS1309542436	M	25	
BDC	I	2015/10/30	2015/10/30	1064660	4635623	XS1309542436	I	35	
BDC	I	2015/10/30	2015/10/30	1064661	4635623	XS1309542436	M	35	
BDC	I	2015/10/30	2015/10/30	1064662	4635662	US3130A6QU49	I	8	
BDC	I	2015/10/30	2015/10/30	1064663	4635662	US3130A6QU49	M	8	
BDC	I	2015/10/30	2015/10/30	1064664	4635665	US3130A6QV22	I	8	
BDC	I	2015/10/30	2015/10/30	1064665	4635665	US3130A6QV22	M	8	
BDC	I	2015/10/30	2015/10/30	1064666	4635667	XS1309543244	I	1	
BDC	I	2015/10/30	2015/10/30	1064667	4635667	XS1309543244	M	1	
BDC	I	2015/10/30	2015/10/30	1064668	4635667	XS1309543244	I	5	
BDC	I	2015/10/30	2015/10/30	1064669	4635667	XS1309543244	M	5	
BDC	I	2015/10/30	2015/10/30	1064670	4635667	XS1309543244	I	10	
BDC	I	2015/10/30	2015/10/30	1064671	4635667	XS1309543244	M	10	
BDC	I	2015/10/30	2015/10/30	1064672	4635667	XS1309543244	I	16	
BDC	I	2015/10/30	2015/10/30	1064673	4635667	XS1309543244	M	16	
BDC	I	2015/10/30	2015/10/30	1064674	4635667	XS1309543244	I	25	
BDC	I	2015/10/30	2015/10/30	1064675	4635667	XS1309543244	M	25	
BDC	I	2015/10/30	2015/10/30	1064676	4635667	XS1309543244	I	30	
BDC	I	2015/10/30	2015/10/30	1064677	4635667	XS1309543244	M	30	
BDC	I	2015/10/30	2015/10/30	1064678	4635667	XS1309543244	I	35	
BDC	I	2015/10/30	2015/10/30	1064679	4635667	XS1309543244	M	35	
BDC	I	2015/10/30	2015/10/30	1064680	4635669	US3130A6QW05	I	8	
BDC	I	2015/10/30	2015/10/30	1064681	4635669	US3130A6QW05	M	8	
BDC	I	2015/10/30	2015/10/30	1064682	4635672	US3130A6QX87	I	8	
BDC	I	2015/10/30	2015/10/30	1064683	4635672	US3130A6QX87	M	8	
BDC	I	2015/10/30	2015/10/30	1064684	4635675	XS1313466549	M	8	
BDC	I	2015/10/30	2015/10/30	1064685	4635675	XS1313466549	M	1	
BDC	I	2015/10/30	2015/10/30	1064686	4635679	US3130A6QY60	I	8	
BDC	I	2015/10/30	2015/10/30	1064687	4635679	US3130A6QY60	M	8	
BDC	I	2015/10/30	2015/10/30	1064688	4635625	XS1309544309	I	1	
BDC	I	2015/10/30	2015/10/30	1064689	4635625	XS1309544309	M	1	
BDC	I	2015/10/30	2015/10/30	1064690	4635625	XS1309544309	I	5	
BDC	I	2015/10/30	2015/10/30	1064691	4635625	XS1309544309	M	5	
BDC	I	2015/10/30	2015/10/30	1064692	4635625	XS1309544309	I	10	
BDC	I	2015/10/30	2015/10/30	1064693	4635625	XS1309544309	M	10	
BDC	I	2015/10/30	2015/10/30	1064694	4635625	XS1309544309	I	16	
BDC	I	2015/10/30	2015/10/30	1064695	4635625	XS1309544309	M	16	
BDC	I	2015/10/30	2015/10/30	1064696	4635625	XS1309544309	I	25	
BDC	I	2015/10/30	2015/10/30	1064697	4635625	XS1309544309	M	25	
BDC	I	2015/10/30	2015/10/30	1064698	4635625	XS1309544309	I	30	
BDC	I	2015/10/30	2015/10/30	1064699	4635625	XS1309544309	M	30	
BDC	I	2015/10/30	2015/10/30	1064700	4635625	XS1309544309	I	35	
BDC	I	2015/10/30	2015/10/30	1064701	4635625	XS1309544309	M	35	
BDC	I	2015/10/30	2015/10/30	1064702	4635695	IT0005138216	M	10	
BDC	I	2015/10/30	2015/10/30	1064703	4039494	US29874QCK85	I	10	
BDC	I	2015/10/30	2015/10/30	1064704	4039494	US29874QCK85	M	10	
BDC	I	2015/10/30	2015/10/30	1064705	4635696	XS1309550371	I	1	
BDC	I	2015/10/30	2015/10/30	1064706	4635696	XS1309550371	M	1	
BDC	I	2015/10/30	2015/10/30	1064707	4635696	XS1309550371	I	5	
BDC	I	2015/10/30	2015/10/30	1064708	4635696	XS1309550371	M	5	
BDC	I	2015/10/30	2015/10/30	1064709	4635696	XS1309550371	I	10	
BDC	I	2015/10/30	2015/10/30	1064710	4635696	XS1309550371	M	10	
BDC	I	2015/10/30	2015/10/30	1064711	4635696	XS1309550371	I	35	
BDC	I	2015/10/30	2015/10/30	1064712	4635696	XS1309550371	M	35	
BDC	I	2015/10/30	2015/10/30	1064713	4635696	XS1309550371	I	25	
BDC	I	2015/10/30	2015/10/30	1064714	4635696	XS1309550371	M	25	
BDC	I	2015/10/30	2015/10/30	1064715	4635696	XS1309550371	I	30	
BDC	I	2015/10/30	2015/10/30	1064716	4635696	XS1309550371	M	30	
BDC	I	2015/10/30	2015/10/30	1064717	4635696	XS1309550371	I	16	
BDC	I	2015/10/30	2015/10/30	1064718	4635696	XS1309550371	M	16	
BDC	I	2015/10/30	2015/10/30	1064719	4635716	XS1309556907	I	1	
BDC	I	2015/10/30	2015/10/30	1064720	4635716	XS1309556907	M	1	
BDC	I	2015/10/30	2015/10/30	1064721	4635716	XS1309556907	I	5	
BDC	I	2015/10/30	2015/10/30	1064722	4635716	XS1309556907	M	5	
BDC	I	2015/10/30	2015/10/30	1064723	4635716	XS1309556907	I	16	
BDC	I	2015/10/30	2015/10/30	1064724	4635716	XS1309556907	M	16	
BDC	I	2015/10/30	2015/10/30	1064725	4635716	XS1309556907	I	35	
BDC	I	2015/10/30	2015/10/30	1064726	4635716	XS1309556907	M	35	
BDC	I	2015/10/30	2015/10/30	1064727	4635716	XS1309556907	I	25	
BDC	I	2015/10/30	2015/10/30	1064728	4635716	XS1309556907	M	25	
BDC	I	2015/10/30	2015/10/30	1064729	4635716	XS1309556907	I	30	
BDC	I	2015/10/30	2015/10/30	1064730	4635716	XS1309556907	M	30	
BDC	I	2015/10/30	2015/10/30	1064731	4635621	XS1309557624	I	1	
BDC	I	2015/10/30	2015/10/30	1064732	4635621	XS1309557624	M	1	
BDC	I	2015/10/30	2015/10/30	1064733	4635621	XS1309557624	I	5	
BDC	I	2015/10/30	2015/10/30	1064734	4635621	XS1309557624	M	5	
BDC	I	2015/10/30	2015/10/30	1064735	4635621	XS1309557624	I	35	
BDC	I	2015/10/30	2015/10/30	1064736	4635621	XS1309557624	M	35	
BDC	I	2015/10/30	2015/10/30	1064737	4635621	XS1309557624	I	16	
BDC	I	2015/10/30	2015/10/30	1064738	4635621	XS1309557624	M	16	
BDC	I	2015/10/30	2015/10/30	1064739	4635621	XS1309557624	I	25	
BDC	I	2015/10/30	2015/10/30	1064740	4635621	XS1309557624	M	25	
BDC	I	2015/10/30	2015/10/30	1064741	4635621	XS1309557624	I	30	
BDC	I	2015/10/30	2015/10/30	1064742	4635621	XS1309557624	M	30	
BDC	I	2015/10/30	2015/10/30	1064743	4133183	US459058DH31	I	10	
BDC	I	2015/10/30	2015/10/30	1064744	4133183	US459058DH31	M	10	
BDC	I	2015/10/30	2015/10/30	1064745	4635764	US61760QHX51	I	8	
BDC	I	2015/10/30	2015/10/30	1064746	4635764	US61760QHX51	M	8	
BDC	I	2015/10/30	2015/10/30	1064747	4618411	US89114QTT57	I	29	
BDC	I	2015/10/30	2015/10/30	1064748	4618411	US89114QTT57	I	8	
BDC	I	2015/10/30	2015/10/30	1064749	4618411	US89114QTT57	M	29	
BDC	I	2015/10/30	2015/10/30	1064750	4618411	US89114QTT57	M	8	
BDC	I	2015/10/30	2015/10/30	1064751	4634059	US89114QTU21	I	8	
BDC	I	2015/10/30	2015/10/30	1064752	4634059	US89114QTU21	M	8	
BDC	I	2015/10/30	2015/10/30	1064753	4634059	US89114QTU21	I	29	
BDC	I	2015/10/30	2015/10/30	1064754	4634059	US89114QTU21	M	29	
BDC	I	2015/10/30	2015/10/30	1064755	4633985	US38148TGJ25	I	8	
BDC	I	2015/10/30	2015/10/30	1064756	4633985	US38148TGJ25	M	8	
BDC	I	2015/10/30	2015/10/30	1064757	4621310	XS1241087482	I	8	
BDC	I	2015/10/30	2015/10/30	1064758	4621310	XS1241087482	M	8	
BDC	I	2015/10/30	2015/10/30	1064759	4621310	XS1241087482	I	7	
BDC	I	2015/10/30	2015/10/30	1064760	4621310	XS1241087482	M	7	
BDC	I	2015/10/30	2015/10/30	1064761	3815359	XS0786617398	I	7	
BDC	I	2015/10/30	2015/10/30	1064762	3815359	XS0786617398	M	7	
BDC	I	2015/10/30	2015/10/30	1064763	3815359	XS0786617398	I	36	
BDC	I	2015/10/30	2015/10/30	1064764	3815359	XS0786617398	M	36	
BDC	I	2015/10/30	2015/10/30	1064765	4633956	US06048WRW28	I	8	
BDC	I	2015/10/30	2015/10/30	1064766	4633956	US06048WRW28	M	8	
BDC	I	2015/10/30	2015/10/30	1064767	4634058	US89114QTV04	I	8	
BDC	I	2015/10/30	2015/10/30	1064768	4634058	US89114QTV04	M	8	
BDC	I	2015/10/30	2015/10/30	1064769	4634058	US89114QTV04	I	29	
BDC	I	2015/10/30	2015/10/30	1064770	4634058	US89114QTV04	M	29	
BDC	I	2015/10/30	2015/10/30	1064771	4635826	US78012KFM45	I	8	
BDC	I	2015/10/30	2015/10/30	1064772	4635826	US78012KFM45	M	8	
BDC	I	2015/10/30	2015/10/30	1064773	4634025	US74340XBE04	I	8	
BDC	I	2015/10/30	2015/10/30	1064774	4634025	US74340XBE04	M	8	
BDC	I	2015/10/30	2015/10/30	1064775	4634025	US74340XBE04	I	76	
BDC	I	2015/10/30	2015/10/30	1064776	4634025	US74340XBE04	M	76	
BDC	I	2015/10/30	2015/10/30	1064777	4634025	US74340XBE04	I	210	
BDC	I	2015/10/30	2015/10/30	1064778	4634025	US74340XBE04	M	210	
BDC	I	2015/10/30	2015/10/30	1064779	4635852	US78012KHA88	I	8	
BDC	I	2015/10/30	2015/10/30	1064780	4635852	US78012KHA88	M	8	
BDC	I	2015/10/30	2015/10/30	1064781	4633993	US38148TGL70	I	8	
BDC	I	2015/10/30	2015/10/30	1064782	4633993	US38148TGL70	M	8	
BDC	I	2015/10/30	2015/10/30	1064783	4634016	US17298C3N65	I	8	
BDC	I	2015/10/30	2015/10/30	1064784	4634016	US17298C3N65	M	8	
BDC	I	2015/10/30	2015/10/30	1064785	4635875	US61746BDW37	I	8	
BDC	I	2015/10/30	2015/10/30	1064786	4635875	US61746BDW37	M	8	
BDC	U	2015/10/13	2015/10/30	1058663	4624048	XS1307337433	I	1	
BDC	U	2015/10/13	2015/10/30	1058664	4624048	XS1307337433	M	1	
BDC	I	2015/10/30	2015/10/30	1064787	4622143	XS1251233505	I	22	
BDC	I	2015/10/30	2015/10/30	1064788	4622143	XS1251233505	M	22	
BDC	I	2015/10/30	2015/10/30	1064789	4303453	XS1013122087	I	8	
BDC	I	2015/10/30	2015/10/30	1064790	4303453	XS1013122087	M	8	
BDC	I	2015/10/30	2015/10/30	1064791	4634472	US29266SAB25	I	8	
BDC	I	2015/10/30	2015/10/30	1064792	4634472	US29266SAB25	M	8	
BDC	I	2015/10/30	2015/10/30	1064793	4184471	XS1022125766	I	8	
BDC	I	2015/10/30	2015/10/30	1064794	4184471	XS1022125766	M	8	
BDC	I	2015/10/30	2015/10/30	1064795	4184471	XS1022125766	I	9	
BDC	I	2015/10/30	2015/10/30	1064796	4184471	XS1022125766	M	9	
BDC	I	2015/10/30	2015/10/30	1064797	4184471	XS1022125766	I	11	
BDC	I	2015/10/30	2015/10/30	1064798	4184471	XS1022125766	I	17	
BDC	I	2015/10/30	2015/10/30	1064799	4184471	XS1022125766	M	11	
BDC	I	2015/10/30	2015/10/30	1064800	4184471	XS1022125766	M	17	
BDC	I	2015/10/30	2015/10/30	1064801	4148679	XS0997949929	I	1	
BDC	I	2015/10/30	2015/10/30	1064802	4148679	XS0997949929	M	1	
BDC	I	2015/10/30	2015/10/30	1064803	4148679	XS0997949929	I	35	
BDC	I	2015/10/30	2015/10/30	1064804	4148679	XS0997949929	M	35	
BDC	I	2015/10/30	2015/10/30	1064805	4633906	US00440EAT47	I	8	
BDC	I	2015/10/30	2015/10/30	1064806	4633906	US00440EAT47	M	8	
BDC	I	2015/10/30	2015/10/30	1064807	4178295	XS1017437721	I	8	
BDC	I	2015/10/30	2015/10/30	1064808	4178295	XS1017437721	M	8	
BDC	I	2015/10/30	2015/10/30	1064809	4421470	XS1035509477	I	17	
BDC	I	2015/10/30	2015/10/30	1064810	4421470	XS1035509477	M	17	
BDC	I	2015/10/30	2015/10/30	1064811	4633916	US00440EAU10	I	8	
BDC	I	2015/10/30	2015/10/30	1064812	4633916	US00440EAU10	M	8	
BDC	I	2015/10/30	2015/10/30	1064813	4260561	XS1065370543	M	8	
BDC	I	2015/10/30	2015/10/30	1064814	4268731	XS1070235004	M	1	
BDC	I	2015/10/30	2015/10/30	1064815	4627764	XS1087486301	I	3	
BDC	I	2015/10/30	2015/10/30	1064816	4627764	XS1087486301	M	3	
BDC	I	2015/10/30	2015/10/30	1064817	4633925	US00440EAV92	I	8	
BDC	I	2015/10/30	2015/10/30	1064818	4633925	US00440EAV92	M	8	
BDC	I	2015/10/30	2015/10/30	1064819	4342803	XS1012457997	I	8	
BDC	I	2015/10/30	2015/10/30	1064820	4342803	XS1012457997	M	8	
BDC	I	2015/10/30	2015/10/30	1064821	4633935	US00440EAW75	I	8	
BDC	I	2015/10/30	2015/10/30	1064822	4633935	US00440EAW75	M	8	
BDC	I	2015/10/30	2015/10/30	1064823	4263110	XS1037595011	I	36	
BDC	I	2015/10/30	2015/10/30	1064824	4263110	XS1037595011	M	36	
BDC	I	2015/10/30	2015/10/30	1064825	4624907	XS1150244934	M	11	
BDC	I	2015/10/30	2015/10/30	1064826	4624907	XS1150244934	M	2	
BDC	I	2015/10/30	2015/10/30	1064827	4425717	XS1170417601	I	1	
BDC	I	2015/10/30	2015/10/30	1064828	4425717	XS1170417601	M	1	
BDC	I	2015/10/30	2015/10/30	1064829	4441867	XS1189286286	I	1	
BDC	I	2015/10/30	2015/10/30	1064830	4441867	XS1189286286	I	21	
BDC	I	2015/10/30	2015/10/30	1064831	4441867	XS1189286286	M	1	
BDC	I	2015/10/30	2015/10/30	1064832	4441867	XS1189286286	M	21	
BDC	I	2015/10/30	2015/10/30	1064833	4469092	XS1209112793	I	1	
BDC	I	2015/10/30	2015/10/30	1064834	4469092	XS1209112793	M	1	
BDC	I	2015/10/30	2015/10/30	1064835	4621303	XS1237869802	I	8	
BDC	I	2015/10/30	2015/10/30	1064836	4621303	XS1237869802	M	8	
BDC	I	2015/10/30	2015/10/30	1064837	4635945	ZAG000130477	I	36	
BDC	I	2015/10/30	2015/10/30	1064838	4635945	ZAG000130477	M	36	
BDC	I	2015/10/30	2015/10/30	1064839	4599386	XS1251299357	I	8	
BDC	I	2015/10/30	2015/10/30	1064840	4599386	XS1251299357	M	8	
BDC	I	2015/10/30	2015/10/30	1064841	4596654	XS1286027047	I	1	
BDC	I	2015/10/30	2015/10/30	1064842	4596654	XS1286027047	M	1	
BDC	I	2015/10/30	2015/10/30	1064843	4596654	XS1286027047	I	25	
BDC	I	2015/10/30	2015/10/30	1064844	4596654	XS1286027047	M	25	
BDC	I	2015/10/30	2015/10/30	1064845	4559036	XS1239393363	I	1	
BDC	I	2015/10/30	2015/10/30	1064846	4559036	XS1239393363	I	8	
BDC	I	2015/10/30	2015/10/30	1064847	4559036	XS1239393363	I	191	
BDC	I	2015/10/30	2015/10/30	1064848	4559036	XS1239393363	I	7	
BDC	I	2015/10/30	2015/10/30	1064849	4559036	XS1239393363	M	1	
BDC	I	2015/10/30	2015/10/30	1064850	4559036	XS1239393363	M	8	
BDC	I	2015/10/30	2015/10/30	1064851	4559036	XS1239393363	M	191	
BDC	I	2015/10/30	2015/10/30	1064852	4559036	XS1239393363	M	7	
BDC	I	2015/10/30	2015/10/30	1064853	4615130	XS1241032157	I	8	
BDC	I	2015/10/30	2015/10/30	1064854	4615130	XS1241032157	I	1	
BDC	I	2015/10/30	2015/10/30	1064855	4615130	XS1241032157	M	8	
BDC	I	2015/10/30	2015/10/30	1064856	4615130	XS1241032157	M	1	
BDC	I	2015/10/30	2015/10/30	1064857	4633233	FR0013029220	I	10	
BDC	I	2015/10/30	2015/10/30	1064858	4633233	FR0013029220	M	10	
BDC	I	2015/10/30	2015/10/30	1064859	4610218	XS1251203003	I	2	
BDC	I	2015/10/30	2015/10/30	1064860	4610218	XS1251203003	I	8	
BDC	I	2015/10/30	2015/10/30	1064861	4610218	XS1251203003	I	24	
BDC	I	2015/10/30	2015/10/30	1064862	4610218	XS1251203003	M	2	
BDC	I	2015/10/30	2015/10/30	1064863	4610218	XS1251203003	M	8	
BDC	I	2015/10/30	2015/10/30	1064864	4610218	XS1251203003	M	24	
BDC	I	2015/10/30	2015/10/30	1064865	4617255	XS1251224264	I	8	
BDC	I	2015/10/30	2015/10/30	1064866	4617255	XS1251224264	M	8	
BDC	I	2015/10/30	2015/10/30	1064867	4618616	XS1251224850	I	33	
BDC	I	2015/10/30	2015/10/30	1064868	4618616	XS1251224850	M	33	
BDC	I	2015/10/30	2015/10/30	1064869	4619316	XS1251227952	I	8	
BDC	I	2015/10/30	2015/10/30	1064870	4619316	XS1251227952	M	8	
BDC	I	2015/10/30	2015/10/30	1064871	4621427	XS1251232010	I	2	
BDC	I	2015/10/30	2015/10/30	1064872	4621427	XS1251232010	M	2	
BDC	I	2015/10/30	2015/10/30	1064873	4624312	XS1264291938	I	8	
BDC	I	2015/10/30	2015/10/30	1064874	4624312	XS1264291938	M	8	
BDC	I	2015/10/30	2015/10/30	1064875	4624315	XS1264292076	I	8	
BDC	I	2015/10/30	2015/10/30	1064876	4624315	XS1264292076	M	8	
BDC	I	2015/10/30	2015/10/30	1064877	4620776	XS1265886744	I	8	
BDC	I	2015/10/30	2015/10/30	1064878	4620776	XS1265886744	M	8	
BDC	I	2015/10/30	2015/10/30	1064879	4582399	XS1237063158	I	1	
BDC	I	2015/10/30	2015/10/30	1064880	4582399	XS1237063158	M	1	
BDC	I	2015/10/30	2015/10/30	1064881	4582399	XS1237063158	I	8	
BDC	I	2015/10/30	2015/10/30	1064882	4582399	XS1237063158	M	8	
BDC	I	2015/10/30	2015/10/30	1064883	4575854	XS1237089625	I	8	
BDC	I	2015/10/30	2015/10/30	1064884	4575854	XS1237089625	M	8	
BDC	I	2015/10/30	2015/10/30	1064885	4575854	XS1237089625	I	1	
BDC	I	2015/10/30	2015/10/30	1064886	4575854	XS1237089625	M	1	
BDC	I	2015/10/30	2015/10/30	1064887	4592629	XS1135669494	M	8	
BDC	I	2015/10/30	2015/10/30	1064888	4592629	XS1135669494	M	17	
BDC	I	2015/10/30	2015/10/30	1064889	4592629	XS1135669494	I	8	
BDC	I	2015/10/30	2015/10/30	1064890	4592629	XS1135669494	I	17	
BDC	I	2015/10/30	2015/10/30	1064891	4394136	XS1143999149	M	1	
BDC	I	2015/10/30	2015/10/30	1064892	4394136	XS1143999149	M	8	
BDC	I	2015/10/30	2015/10/30	1064893	4394136	XS1143999149	I	1	
BDC	I	2015/10/30	2015/10/30	1064894	4394136	XS1143999149	I	8	
BDC	I	2015/10/30	2015/10/30	1064895	4403052	XS1150786074	M	44	
BDC	I	2015/10/30	2015/10/30	1064896	4403052	XS1150786074	I	44	
BDC	I	2015/10/30	2015/10/30	1064897	4493448	XS1222608520	M	48	
BDC	I	2015/10/30	2015/10/30	1064898	4493448	XS1222608520	M	7	
BDC	I	2015/10/30	2015/10/30	1064899	4493448	XS1222608520	M	20	
BDC	I	2015/10/30	2015/10/30	1064900	4493448	XS1222608520	M	1	
BDC	I	2015/10/30	2015/10/30	1064901	4493448	XS1222608520	I	48	
BDC	I	2015/10/30	2015/10/30	1064902	4493448	XS1222608520	I	7	
BDC	I	2015/10/30	2015/10/30	1064903	4493448	XS1222608520	I	219	
BDC	I	2015/10/30	2015/10/30	1064904	4493448	XS1222608520	I	1	
BDC	I	2015/10/30	2015/10/30	1064905	4594528	XS1280919397	M	35	
BDC	I	2015/10/30	2015/10/30	1064906	4594528	XS1280919397	I	35	
BDC	I	2015/10/30	2015/10/30	1064907	4624048	XS1307337433	I	8	
BDC	I	2015/10/30	2015/10/30	1064908	4624048	XS1307337433	I	7	
BDC	I	2015/10/30	2015/10/30	1064909	4624048	XS1307337433	M	8	
BDC	I	2015/10/30	2015/10/30	1064910	4624048	XS1307337433	M	7	
BDC	I	2015/10/30	2015/10/30	1064911	4605507	XS1241069233	M	9	
BDC	I	2015/10/30	2015/10/30	1064912	4605507	XS1241069233	I	9	
BDC	I	2015/10/30	2015/10/30	1064913	4615133	XS1241074233	M	8	
BDC	I	2015/10/30	2015/10/30	1064914	4615133	XS1241074233	I	8	
BDC	I	2015/10/30	2015/10/30	1064915	4572422	XS1269338353	M	1	
BDC	I	2015/10/30	2015/10/30	1064916	4572422	XS1269338353	M	8	
BDC	I	2015/10/30	2015/10/30	1064917	4572422	XS1269338353	M	15	
BDC	I	2015/10/30	2015/10/30	1064918	4572422	XS1269338353	M	154	
BDC	I	2015/10/30	2015/10/30	1064919	4572422	XS1269338353	M	7	
BDC	I	2015/10/30	2015/10/30	1064921	4572422	XS1269338353	I	1	
BDC	I	2015/10/30	2015/10/30	1064922	4572422	XS1269338353	I	8	
BDC	I	2015/10/30	2015/10/30	1064920	4625293	XS1308674131	I	29	
BDC	I	2015/10/30	2015/10/30	1064923	4572422	XS1269338353	I	15	
BDC	I	2015/10/30	2015/10/30	1064924	4572422	XS1269338353	I	7	
BDC	I	2015/10/30	2015/10/30	1064925	4572422	XS1269338353	I	154	
BDC	I	2015/10/30	2015/10/30	1064926	4629582	XS1309061411	I	10	
BDC	I	2015/10/30	2015/10/30	1064927	4629582	XS1309061411	M	10	
BDC	I	2015/10/30	2015/10/30	1064928	4626610	FR0013019510	I	10	
BDC	I	2015/10/30	2015/10/30	1064929	4626610	FR0013019510	M	10	
BDC	I	2015/10/30	2015/10/30	1064930	4629586	XS1309061171	I	10	
BDC	I	2015/10/30	2015/10/30	1064931	4629586	XS1309061171	M	10	
BDC	I	2015/10/30	2015/10/30	1064932	4594004	XS1236552227	I	2	
BDC	I	2015/10/30	2015/10/30	1064933	4594004	XS1236552227	M	2	
BDC	I	2015/10/30	2015/10/30	1064934	4636044	IT0005139149	I	10	
BDC	I	2015/10/30	2015/10/30	1064935	4636044	IT0005139149	M	10	
BDC	I	2015/10/30	2015/10/30	1064936	4636047	IT0005139636	I	10	
BDC	I	2015/10/30	2015/10/30	1064937	4636047	IT0005139636	M	10	
BDC	I	2015/10/30	2015/10/30	1064938	4627388	XS1310045080	M	1	
BDC	I	2015/10/30	2015/10/30	1064939	4583963	XS1278848384	M	1	
BDC	I	2015/10/30	2015/10/30	1064940	4583963	XS1278848384	M	8	
BDC	I	2015/10/30	2015/10/30	1064941	4583963	XS1278848384	I	1	
BDC	I	2015/10/30	2015/10/30	1064942	4583963	XS1278848384	I	8	
BDC	I	2015/10/30	2015/10/30	1064943	4633228	US48125UZ392	I	8	
BDC	I	2015/10/30	2015/10/30	1064944	4633228	US48125UZ392	M	8	
BDC	I	2015/10/30	2015/10/30	1064945	4626982	ZAG000130337	M	36	
BDC	I	2015/10/30	2015/10/30	1064946	4633232	US48125UZ889	I	8	
BDC	I	2015/10/30	2015/10/30	1064947	4633232	US48125UZ889	M	8	
BDC	I	2015/10/30	2015/10/30	1064948	4627533	ZAG000130436	M	36	
BDC	I	2015/10/30	2015/10/30	1064949	4633969	US38148T3E70	I	8	
BDC	I	2015/10/30	2015/10/30	1064950	4633969	US38148T3E70	M	8	
BDC	I	2015/10/30	2015/10/30	1064951	4585360	XS1280189728	M	8	
BDC	I	2015/10/30	2015/10/30	1064952	4585360	XS1280189728	M	7	
BDC	I	2015/10/30	2015/10/30	1064953	4585360	XS1280189728	M	1	
BDC	I	2015/10/30	2015/10/30	1064954	4585360	XS1280189728	I	8	
BDC	I	2015/10/30	2015/10/30	1064955	4585360	XS1280189728	I	7	
BDC	I	2015/10/30	2015/10/30	1064956	4585360	XS1280189728	I	1	
BDC	I	2015/10/30	2015/10/30	1064957	4590919	XS1281765609	I	8	
BDC	I	2015/10/30	2015/10/30	1064958	4590919	XS1281765609	M	8	
BDC	I	2015/10/30	2015/10/30	1064959	4590919	XS1281765609	I	1	
BDC	I	2015/10/30	2015/10/30	1064960	4590919	XS1281765609	M	1	
BDC	I	2015/10/30	2015/10/30	1064961	4599707	XS1288555649	I	1	
BDC	I	2015/10/30	2015/10/30	1064962	4599707	XS1288555649	M	1	
BDC	I	2015/10/30	2015/10/30	1064963	4604127	XS1291671060	M	1	
BDC	I	2015/10/30	2015/10/30	1064964	4604127	XS1291671060	M	8	
BDC	I	2015/10/30	2015/10/30	1064965	4604127	XS1291671060	I	1	
BDC	I	2015/10/30	2015/10/30	1064966	4604127	XS1291671060	I	8	
BDC	I	2015/10/30	2015/10/30	1064967	4609781	XS1295793746	M	8	
BDC	I	2015/10/30	2015/10/30	1064968	4609781	XS1295793746	I	8	
BDC	I	2015/10/30	2015/10/30	1064969	4636260	US38148TFN46	M	8	
BDC	I	2015/10/30	2015/10/30	1064970	4621013	XS1305185594	M	1	
BDC	I	2015/10/30	2015/10/30	1064971	4621013	XS1305185594	I	1	
BDC	I	2015/10/30	2015/10/30	1064972	4605567	XS1236500853	I	8	
BDC	I	2015/10/30	2015/10/30	1064973	4605567	XS1236500853	M	8	
BDC	I	2015/10/30	2015/10/30	1064974	4605567	XS1236500853	I	7	
BDC	I	2015/10/30	2015/10/30	1064975	4605567	XS1236500853	M	7	
BDC	I	2015/10/30	2015/10/30	1064976	4623576	XS1307870458	M	15	
BDC	I	2015/10/30	2015/10/30	1064977	4623576	XS1307870458	I	15	
BDC	I	2015/10/30	2015/10/30	1064978	4620136	XS1265882081	I	8	
BDC	I	2015/10/30	2015/10/30	1064979	4620136	XS1265882081	M	8	
BDC	I	2015/10/30	2015/10/30	1064980	4620159	XS1265888369	I	1	
BDC	I	2015/10/30	2015/10/30	1064981	4620159	XS1265888369	M	1	
BDC	I	2015/10/30	2015/10/30	1064982	4620159	XS1265888369	I	8	
BDC	I	2015/10/30	2015/10/30	1064983	4620159	XS1265888369	M	8	
BDC	I	2015/10/30	2015/10/30	1064984	4622360	XS1307366614	M	1	
BDC	I	2015/10/30	2015/10/30	1064985	4290742	XS1029926364	I	8	
BDC	I	2015/10/30	2015/10/30	1064986	4290742	XS1029926364	M	8	
BDC	I	2015/10/30	2015/10/30	1064987	4290750	XS1029926950	I	8	
BDC	I	2015/10/30	2015/10/30	1064988	4290750	XS1029926950	M	8	
BDC	I	2015/10/30	2015/10/30	1064989	4276672	XS1037630370	I	36	
BDC	I	2015/10/30	2015/10/30	1064990	4276672	XS1037630370	M	36	
BDC	I	2015/10/30	2015/10/30	1064991	4630844	XS1312031526	I	18	
BDC	I	2015/10/30	2015/10/30	1064992	4630844	XS1312031526	M	18	
BDC	I	2015/10/30	2015/10/30	1064993	4630844	XS1312031526	I	1	
BDC	I	2015/10/30	2015/10/30	1064994	4630844	XS1312031526	M	1	
BDC	I	2015/10/30	2015/10/30	1064995	4630844	XS1312031526	I	8	
BDC	I	2015/10/30	2015/10/30	1064996	4630844	XS1312031526	M	8	
BDC	I	2015/10/30	2015/10/30	1064997	4610883	XS1265931631	I	8	
BDC	I	2015/10/30	2015/10/30	1064998	4610883	XS1265931631	M	8	
BDC	I	2015/10/30	2015/10/30	1064999	4630816	XS1312031104	M	17	
BDC	I	2015/10/30	2015/10/30	1065000	4630816	XS1312031104	M	11	
BDC	I	2015/10/30	2015/10/30	1065001	4630816	XS1312031104	M	1	
BDC	I	2015/10/30	2015/10/30	1065002	4630816	XS1312031104	M	8	
BDC	I	2015/10/30	2015/10/30	1065003	4630816	XS1312031104	I	8	
BDC	I	2015/10/30	2015/10/30	1065004	4630816	XS1312031104	I	1	
BDC	I	2015/10/30	2015/10/30	1065005	4630816	XS1312031104	I	11	
BDC	I	2015/10/30	2015/10/30	1065006	4630816	XS1312031104	I	17	
BDC	I	2015/10/30	2015/10/30	1065007	4634783	XS1315184637	I	1	
BDC	I	2015/10/30	2015/10/30	1065008	4634783	XS1315184637	M	1	
BDC	I	2015/10/30	2015/10/30	1065009	4630822	XS1312031286	M	1	
BDC	I	2015/10/30	2015/10/30	1065010	4630822	XS1312031286	M	8	
BDC	I	2015/10/30	2015/10/30	1065011	4630822	XS1312031286	M	29	
BDC	I	2015/10/30	2015/10/30	1065012	4630822	XS1312031286	M	18	
BDC	I	2015/10/30	2015/10/30	1065013	4630822	XS1312031286	I	18	
BDC	I	2015/10/30	2015/10/30	1065014	4630822	XS1312031286	I	29	
BDC	I	2015/10/30	2015/10/30	1065015	4630822	XS1312031286	I	8	
BDC	I	2015/10/30	2015/10/30	1065016	4630822	XS1312031286	I	1	
BDC	I	2015/10/30	2015/10/30	1065017	4630324	XS1312031369	M	1	
BDC	I	2015/10/30	2015/10/30	1065018	4630324	XS1312031369	M	8	
BDC	I	2015/10/30	2015/10/30	1065019	4630324	XS1312031369	M	18	
BDC	I	2015/10/30	2015/10/30	1065020	4630324	XS1312031369	M	29	
BDC	I	2015/10/30	2015/10/30	1065021	4630324	XS1312031369	I	29	
BDC	I	2015/10/30	2015/10/30	1065022	4630324	XS1312031369	I	18	
BDC	I	2015/10/30	2015/10/30	1065023	4630324	XS1312031369	I	8	
BDC	I	2015/10/30	2015/10/30	1065024	4630324	XS1312031369	I	1	
BDC	I	2015/10/30	2015/10/30	1065025	4630838	XS1312031443	M	8	
BDC	I	2015/10/30	2015/10/30	1065026	4630838	XS1312031443	M	29	
BDC	I	2015/10/30	2015/10/30	1065027	4630838	XS1312031443	M	1	
BDC	I	2015/10/30	2015/10/30	1065028	4630838	XS1312031443	I	1	
BDC	I	2015/10/30	2015/10/30	1065029	4630838	XS1312031443	I	29	
BDC	I	2015/10/30	2015/10/30	1065030	4630838	XS1312031443	I	8	
BDC	I	2015/10/30	2015/10/30	1065031	4630847	XS1312031799	M	12	
BDC	I	2015/10/30	2015/10/30	1065032	4630847	XS1312031799	M	11	
BDC	I	2015/10/30	2015/10/30	1065033	4630847	XS1312031799	M	17	
BDC	I	2015/10/30	2015/10/30	1065034	4630847	XS1312031799	M	1	
BDC	I	2015/10/30	2015/10/30	1065035	4630847	XS1312031799	I	1	
BDC	I	2015/10/30	2015/10/30	1065036	4630847	XS1312031799	I	17	
BDC	I	2015/10/30	2015/10/30	1065037	4630847	XS1312031799	I	11	
BDC	I	2015/10/30	2015/10/30	1065038	4630847	XS1312031799	I	12	
EDI_ENDOFFILE
