EDI_PVRD_20151031
TableName	Actflag	Created	Changed	PvRdID	SecID	ISIN	EffectiveDate	CurenCD	OldParValue	NewParValue	EventType	Notes
PVRD	I	2015/10/30	2015/10/30	186268	4633994	US3134G76S53	2015/10/29	USD		1000.00000	CORR	
PVRD	I	2015/10/30	2015/10/30	186269	4634715	US3134G76W65	2015/10/29	USD		1000.00000	CORR	
PVRD	I	2015/10/30	2015/10/30	186270	4627016	KR60198035A2	2015/10/16	KRW		10000.00000	CORR	
PVRD	I	2015/10/30	2015/10/30	186271	4634811	US3134G77J46	2015/10/29	USD		1000.00000	CORR	
PVRD	I	2015/10/30	2015/10/30	186272	4634780	US3134G77D75	2015/10/29	USD		1000.00000	CORR	
PVRD	I	2015/10/30	2015/10/30	186273	4634767	US3134G76Z96	2015/10/29	USD		1000.00000	CORR	
PVRD	I	2015/10/30	2015/10/30	186274	4634815	US3134G77L91	2015/10/29	USD		1000.00000	CORR	
PVRD	I	2015/10/30	2015/10/30	186275	4633915	EGBGR01611F5	2015/10/29	EGP		1000.00000	CORR	
PVRD	I	2015/10/30	2015/10/30	186276	4634025	US74340XBE04	2015/10/29	USD		2000.00000	CORR	
PVRD	I	2015/10/30	2015/10/30	186277	4619258	US3130A6LC95	2015/10/29	USD		500000.00000	CORR	
PVRD	I	2015/10/30	2015/10/30	186278	1493591	XS0434519954	2015/03/08	PLN	24000.00000	24200.00000	CORR	
PVRD	I	2015/10/30	2015/10/30	186279	1511690	XS0441116919	2015/03/09	PLN	23800.00000	24000.00000	CORR	
PVRD	I	2015/10/30	2015/10/30	186280	1522890	XS0445619488	2015/03/06	PLN	23000.00000	23800.00000	CORR	
PVRD	I	2015/10/30	2015/10/30	186281	4632892		2015/10/21	CNY		100.00000	CORR	
PVRD	I	2015/10/30	2015/10/30	186282	4631628		2015/10/21	CNY		100.00000	CORR	
PVRD	I	2015/10/30	2015/10/30	186283	4616711	US3130A6KC05	2015/10/29	USD		100000.00000	CORR	
PVRD	I	2015/10/30	2015/10/30	186284	4627041	KR60001115A9	2015/10/17	KRW		10000.00000	CORR	
PVRD	I	2015/10/30	2015/10/30	186285	4628177	KR60049415A7	2015/10/19	KRW		10000.00000	CORR	
PVRD	I	2015/10/30	2015/10/30	186286	4616723	US3130A6KF36	2015/10/29	USD		100000.00000	CORR	
PVRD	I	2015/10/30	2015/10/30	186287	4627029	KR60219665A1	2015/10/17	KRW		10000.00000	CORR	
PVRD	I	2015/10/30	2015/10/30	186288	4618502	US3130A6L620	2015/10/29	USD		10000.00000	CORR	
PVRD	I	2015/10/30	2015/10/30	186289	4616727	US3130A6KG19	2015/10/29	USD		100000.00000	CORR	
PVRD	I	2015/10/30	2015/10/30	186290	4618504	US3130A6L885	2015/10/29	USD		10000.00000	CORR	
PVRD	I	2015/10/30	2015/10/30	186291	4633143	CA63308ZFB00	2015/10/29	CAD		100.00000	CORR	
PVRD	I	2015/10/30	2015/10/30	186292	4618411	US89114QTT57	2015/10/28	USD		1000.00000	CORR	
PVRD	I	2015/10/30	2015/10/30	186293	4619269	US3130A6LK12	2015/10/29	USD		100000.00000	CORR	
PVRD	I	2015/10/30	2015/10/30	186294	4633888	CA63308ZEY12	2015/10/29	CAD		100.00000	CORR	
PVRD	I	2015/10/30	2015/10/30	186295	4619270	US3130A6LL94	2015/10/29	USD		100000.00000	CORR	
PVRD	I	2015/10/30	2015/10/30	186296	4633796	CA63308ZET27	2015/10/29	CAD		100.00000	CORR	
PVRD	I	2015/10/30	2015/10/30	186297	4633139	CA63308ZFG96	2015/10/29	USD		100.00000	CORR	
PVRD	I	2015/10/30	2015/10/30	186298	4633018	CA63308ZFR51	2015/10/29	CAD		100.00000	CORR	
PVRD	I	2015/10/30	2015/10/30	186299	4620073	US3130A6LX33	2015/10/29	USD		100000.00000	CORR	
PVRD	I	2015/10/30	2015/10/30	186300	4632991	CA06367XKP55	2015/10/29	CAD		100.00000	CORR	
PVRD	I	2015/10/30	2015/10/30	186301	4633985	US38148TGJ25	2015/10/30	USD		1000.00000	CORR	
PVRD	I	2015/10/30	2015/10/30	186302	4634059	US89114QTU21	2015/10/30	USD		1000.00000	CORR	
PVRD	I	2015/10/30	2015/10/30	186303	4620061	US3130A6LS48	2015/10/29	USD		10000.00000	CORR	
PVRD	I	2015/10/30	2015/10/30	186304	4634058	US89114QTV04	2015/10/30	USD		1000.00000	CORR	
PVRD	I	2015/10/30	2015/10/30	186305	4632026	JP1745671FB1	2015/10/29	JPY	50000.00000	10000000.00000	CORR	
PVRD	I	2015/10/30	2015/10/30	186306	4621702	US3130A6MB04	2015/10/29	USD		10000.00000	CORR	
PVRD	I	2015/10/30	2015/10/30	186307	4633956	US06048WRW28	2015/10/29	USD		1000.00000	CORR	
PVRD	I	2015/10/30	2015/10/30	186308	4627010	KR60198025A3	2015/10/16	KRW		10000.00000	CORR	
PVRD	I	2015/10/30	2015/10/30	186309	4621708	US3130A6MC86	2015/10/29	USD		10000.00000	CORR	
PVRD	I	2015/10/30	2015/10/30	186310	4622650	US3130A6MP99	2015/10/29	USD		100000.00000	CORR	
PVRD	I	2015/10/30	2015/10/30	186311	4625540	US3130A6N527	2015/10/29	USD		10000.00000	CORR	
PVRD	I	2015/10/30	2015/10/30	186312	4622606	US3130A6MG90	2015/10/29	USD		100000.00000	CORR	
PVRD	I	2015/10/30	2015/10/30	186313	4624571	US3130A6MU84	2015/10/30	USD		100000.00000	CORR	
PVRD	I	2015/10/30	2015/10/30	186314	4630310	US3133EFME43	2015/10/28	USD		1000.00000	CORR	
PVRD	I	2015/10/30	2015/10/30	186315	4622657	US3130A6MR55	2015/10/29	USD		100000.00000	CORR	
PVRD	I	2015/10/30	2015/10/30	186316	4634655	US3133EFMZ71	2015/10/29	USD		1000.00000	CORR	
PVRD	I	2015/10/30	2015/10/30	186317	4626390	US3130A6NA12	2015/10/29	USD		10000.00000	CORR	
PVRD	I	2015/10/30	2015/10/30	186318	4635733	US0258M0DZ91	2015/10/30	USD		2000.00000	CORR	
PVRD	I	2015/10/30	2015/10/30	186319	4633993	US38148TGL70	2015/10/28	USD		1000.00000	CORR	
PVRD	I	2015/10/30	2015/10/30	186320	4632034	JP326497AFB6	2015/10/29	JPY	1000.00000	10000000.00000	CORR	
PVRD	I	2015/10/30	2015/10/30	186321	4626392	US3130A6NB94	2015/10/29	USD		100000.00000	CORR	
PVRD	I	2015/10/30	2015/10/30	186322	4635730	US0258M0EA32	2015/10/29	USD		2000.00000	CORR	
PVRD	I	2015/10/30	2015/10/30	186323	4626395	US3130A6NC77	2015/10/29	USD		100000.00000	CORR	
PVRD	I	2015/10/30	2015/10/30	186324	4634016	US17298C3N65	2015/10/29	USD		1000.00000	CORR	
PVRD	I	2015/10/30	2015/10/30	186325	4626400	US3130A6ND50	2015/10/30	USD		100000.00000	CORR	
PVRD	I	2015/10/30	2015/10/30	186326	4630306	US3133EFMD69	2015/10/29	USD		1000.00000	CORR	
PVRD	I	2015/10/30	2015/10/30	186327	4627700	US3130A6NL76	2015/10/29	USD		10000.00000	CORR	
PVRD	I	2015/10/30	2015/10/30	186328	4630477	JP351265QFA3	2015/10/29	JPY	1000.00000	10000000.00000	CORR	
PVRD	I	2015/10/30	2015/10/30	186329	4629362	US3130A6NV58	2015/10/30	USD		100000.00000	CORR	
PVRD	I	2015/10/30	2015/10/30	186330	4628437	US3130A6NT03	2015/10/29	USD		1000.00000	CORR	
PVRD	I	2015/10/30	2015/10/30	186331	4621104	US94986RZM68	2015/10/30	USD		1000.00000	CORR	
PVRD	I	2015/10/30	2015/10/30	186332	4631758	US3133EFMJ30	2015/10/29	USD		1000.00000	CORR	
PVRD	I	2015/10/30	2015/10/30	186333	4628437	US3130A6NT03	2015/10/30	USD	1000.00000	10000.00000	CLEAN	
PVRD	I	2015/10/30	2015/10/30	186334	4629365	US3130A6NW32	2015/10/29	USD		100000.00000	CORR	
PVRD	I	2015/10/30	2015/10/30	186335	3138048	IN1020110079	2011/10/06	INR	10000.00000	100.00000	CLEAN	
PVRD	I	2015/10/30	2015/10/30	186336	4629511	US3133EFLT21	2015/10/28	USD		1000.00000	CORR	
PVRD	I	2015/10/30	2015/10/30	186337	4635875	US61746BDW37	2015/10/30	USD		1000.00000	CORR	
PVRD	I	2015/10/30	2015/10/30	186379	4627575	ZAG000130394	2015/10/14	ZAR		1000000.00000	CORR	
PVRD	I	2015/10/30	2015/10/30	186380	4627590	ZAG000130410	2015/10/14	ZAR		1000000.00000	CORR	
PVRD	I	2015/10/30	2015/10/30	186381	4627533	ZAG000130436	2015/10/14	ZAR		1000000.00000	CORR	
PVRD	I	2015/10/30	2015/10/30	186382	4633226	US22546VN856	2015/10/28	USD		1000.00000	CORR	
PVRD	I	2015/10/30	2015/10/30	186383	4633969	US38148T3E70	2015/10/28	USD		1000.00000	CORR	
PVRD	I	2015/10/30	2015/10/30	186384	4633214	US22546VNB89	2015/10/30	USD		1000.00000	CORR	
PVRD	I	2015/10/30	2015/10/30	186338	4630180	US3133EFLX33	2015/10/29	USD		1000.00000	CORR	
PVRD	I	2015/10/30	2015/10/30	186339	4631811	US3130A6PT84	2015/10/29	USD		10000.00000	CORR	
PVRD	I	2015/10/30	2015/10/30	186340	4631824	US3130A6PY79	2015/10/30	USD		100000.00000	CORR	
PVRD	I	2015/10/30	2015/10/30	186341	4631812	US3130A6PU57	2015/10/29	USD		100000.00000	CORR	
PVRD	I	2015/10/30	2015/10/30	186342	4633059	US3130A6Q264	2015/10/29	USD		10000.00000	CORR	
PVRD	I	2015/10/30	2015/10/30	186343	4633061	US3130A6Q348	2015/10/30	USD		10000.00000	CORR	
PVRD	I	2015/10/30	2015/10/30	186344	4628482	US3133EFLK12	2015/10/26	USD		1000.00000	CORR	
PVRD	I	2015/10/30	2015/10/30	186345	4629371	US3130A6NZ62	2015/10/30	USD		10000.00000	CORR	
PVRD	I	2015/10/30	2015/10/30	186346	4626367	US3133EFLA30	2015/10/23	USD		1000.00000	CORR	
PVRD	I	2015/10/30	2015/10/30	186347	1371728	GRC234107781	2015/10/24	EUR	12.49000	13.76000	CORR	
PVRD	I	2015/10/30	2015/10/30	186348	4630985	US3130A6PB76	2015/10/29	USD		100000.00000	CORR	
PVRD	I	2015/10/30	2015/10/30	186349	4626388	US3133EFLD78	2015/10/23	USD		1000.00000	CORR	
PVRD	I	2015/10/30	2015/10/30	186350	4625629	US3133EFKP18	2015/10/22	USD		1000.00000	CORR	
PVRD	I	2015/10/30	2015/10/30	186351	4629367	US3130A6NX15	2015/10/29	USD		100000.00000	CORR	
PVRD	I	2015/10/30	2015/10/30	186352	4631028	US3130A6PP62	2015/10/30	USD		100000.00000	CORR	
PVRD	I	2015/10/30	2015/10/30	186353	4634472	US29266SAB25	2015/10/30	USD		1000.00000	CORR	
PVRD	I	2015/10/30	2015/10/30	186354	4260561	XS1065370543	2014/05/10	USD	1.00000	5000.00000	CORR	
PVRD	I	2015/10/30	2015/10/30	186355	4635941	MX0FBM1D05L5	2015/09/04	MXN		100.00000	CORR	
PVRD	I	2015/10/30	2015/10/30	186356	4469191	AU3FN0026837	2015/03/28	AUD	1.00000	10000.00000	CORR	
PVRD	I	2015/10/30	2015/10/30	186357	4508055	ARTGLT560019	2015/05/13	ARS		1.00000	CORR	
PVRD	I	2015/10/30	2015/10/30	186358	4507111	ARTGLT560035	2015/05/12	ARS		1.00000	CORR	
PVRD	I	2015/10/30	2015/10/30	186359	1395920	US651333DZ61	1993/10/14	USD	100.00000	1000.00000	CORR	
PVRD	I	2015/10/30	2015/10/30	186360	4631617		2015/10/21	CNY		100.00000	CORR	
PVRD	I	2015/10/30	2015/10/30	186361	4631611		2015/10/21	CNY		100.00000	CORR	
PVRD	I	2015/10/30	2015/10/30	186362	4631610		2015/10/21	CNY		100.00000	CORR	
PVRD	I	2015/10/30	2015/10/30	186363	4632883		2015/10/21	CNY		100.00000	CORR	
PVRD	I	2015/10/30	2015/10/30	186364	4607116	XS1251209620	2015/09/25	GBP	1000.00000	1.00000	CORR	
PVRD	I	2015/10/30	2015/10/30	186365	4632889		2015/10/21	CNY		100.00000	CORR	
PVRD	I	2015/10/30	2015/10/30	186366	4607345	CND100008SR6	2015/09/16	CNY		100.00000	CORR	
PVRD	I	2015/10/30	2015/10/30	186367	4623876		2015/10/13	CNY		100.00000	CORR	
PVRD	I	2015/10/30	2015/10/30	186368	4627021	KR60198045A1	2015/10/17	KRW		10000.00000	CORR	
PVRD	I	2015/10/30	2015/10/30	186369	4619220	XS1272648137	2015/10/02	GBP	1000.00000	1.00000	CORR	
PVRD	I	2015/10/30	2015/10/30	186370	4623938		2015/10/13	CNY		100.00000	CORR	
PVRD	I	2015/10/30	2015/10/30	186371	4626982	ZAG000130337	2015/10/14	ZAR		1000000.00000	CORR	
PVRD	I	2015/10/30	2015/10/30	186372	4633296	US22546VNM45	2015/10/29	USD		1000.00000	CORR	
PVRD	I	2015/10/30	2015/10/30	186373	4625028	ZAG000130345	2015/10/13	ZAR		1000000.00000	CORR	
PVRD	I	2015/10/30	2015/10/30	186374	4633217	US22546VN773	2015/10/30	USD		1000.00000	CORR	
PVRD	I	2015/10/30	2015/10/30	186375	4633228	US48125UZ392	2015/10/27	USD		1000.00000	CORR	
PVRD	I	2015/10/30	2015/10/30	186376	4627584	ZAG000130378	2015/10/14	ZAR		1000000.00000	CORR	
PVRD	I	2015/10/30	2015/10/30	186377	4633232	US48125UZ889	2015/10/27	USD		1000.00000	CORR	
PVRD	I	2015/10/30	2015/10/30	186378	4633222	US22546VP596	2015/10/28	USD		1000.00000	CORR	
PVRD	I	2015/10/30	2015/10/30	186385	4202334	BRBTGYDBS002	2014/01/17	BRL	100000.00000	234700.00000	CORR	
PVRD	I	2015/10/30	2015/10/30	186387	4632838	HK0000271533	2015/10/30	CNY	10000.00000	1000000.00000	CORR	
PVRD	I	2015/10/30	2015/10/30	186388	4634857	DE000HLB2DK4	2015/10/29	EUR		1000.00000	CORR	
PVRD	I	2015/10/30	2015/10/30	186389	4634009	US22546VPM27	2015/10/28	USD		1000.00000	CORR	
PVRD	I	2015/10/30	2015/10/30	186390	4634037	US22546VPP57	2015/10/28	USD		1000.00000	CORR	
PVRD	I	2015/10/30	2015/10/30	186391	4616815	XS1300367916	2015/10/28	EUR	100000.00000	1000000.00000	CORR	
PVRD	I	2015/10/30	2015/10/30	186392	4623875		2015/10/12	CNY		100.00000	CORR	
PVRD	I	2015/10/30	2015/10/30	186393	4636252	KR60006815A9	2015/10/30	KRW		10000.00000	CORR	
PVRD	I	2015/10/30	2015/10/30	186394	4635708	KR60237825A9	2015/10/30	KRW		10000.00000	CORR	
PVRD	I	2015/10/30	2015/10/30	186395	4633290	US22546VND46	2015/10/27	USD		1000.00000	CORR	
PVRD	I	2015/10/30	2015/10/30	186396	4623267	US83369EBW93	2015/10/19	USD		1000.00000	CORR	
PVRD	I	2015/10/30	2015/10/30	186397	4636249	KR61363025A0	2015/10/30	KRW		10000.00000	CORR	
PVRD	I	2015/10/30	2015/10/30	186398	4623272	US83369EBR09	2015/10/19	USD		1000.00000	CORR	
PVRD	I	2015/10/30	2015/10/30	186399	4633129	XS1313593060	2015/10/30	EUR	100000.00000	1000.00000	CORR	
PVRD	I	2015/10/30	2015/10/30	186400	4636251	KR61363035A9	2015/10/30	KRW		10000.00000	CORR	
PVRD	I	2015/10/30	2015/10/30	186401	4615392	DE000DK0FMV2	2015/07/29	EUR	1.00000	1000.00000	CORR	
PVRD	I	2015/10/30	2015/10/30	186402	4621220	DE000HLB2C18	2015/10/07	EUR		1000.00000	CORR	
PVRD	I	2015/10/30	2015/10/30	186403	4621224	DE000HLB2C26	2015/10/07	EUR		1000.00000	CORR	
PVRD	I	2015/10/30	2015/10/30	186404	3997339	XS0839780581	2013/05/21	USD	50000.00000	1000.00000	CORR	
PVRD	I	2015/10/30	2015/10/30	186405	4630410	US06366R3Q68	2015/10/27	USD		1000.00000	CORR	
PVRD	I	2015/10/30	2015/10/30	186406	4630417	US06366R3R42	2015/10/27	USD		1000.00000	CORR	
EDI_ENDOFFILE
