EDI_MTCHG_20151031
TableName	Actflag	Created	Changed	MtChgID	SecID	ISIN	NotificationDate	OldMaturityDate	NewMaturityDate	Reason	EventType	OldMaturityBenchmark	NewMaturityBenchmark	Notes
MTCHG	I	2015/10/30	2015/10/30	45869	353710	XS0137998067	2001/11/17	2014/11/15	2017/11/15		CORR			
MTCHG	I	2015/10/30	2015/10/30	45870	4630320	XS1311446790	2015/10/28	2022/10/31	2022/10/28		CORR			
MTCHG	I	2015/10/30	2015/10/30	45871	4634775		2015/10/28	2016/01/27	2015/12/23		CLEAN			
MTCHG	I	2015/10/30	2015/10/30	45872	4015796	XS0913978382	2015/10/22	2016/10/30	2021/10/30		MTCHG			
MTCHG	I	2015/10/30	2015/10/30	45873	4134391		2014/10/25	2014/10/25	2015/10/25		MTCHG			
MTCHG	I	2015/10/30	2015/10/30	45874	4157300	NO0010697030	2015/03/25	2016/12/09	2018/03/06		CORR			
MTCHG	I	2015/10/30	2015/10/30	45875	2659643	NO0010606320	2015/03/25	2017/12/09	2018/03/06		MTCHG			
MTCHG	I	2015/10/30	2015/10/30	45876	4635866	US594918BL72	2015/10/30	2055/11/03	2045/11/03		CLEAN			
MTCHG	I	2015/10/30	2015/10/30	45877	1658422	US74254PFW77	2005/05/26	2020/05/20	2020/05/15		CORR			
EDI_ENDOFFILE
