EDI_BKRP_20151031
TableName	Actflag	Created	Changed	BkrpID	SecID	ISIN	IssID	NotificationDate	FilingDate
BKRP	I	2015/10/30	2015/10/30	1866	321974	XS0223921825	96776	2015/10/29	2015/10/27
BKRP	I	2015/10/30	2015/10/30	1866	341213	XS0246282056	96776	2015/10/29	2015/10/27
BKRP	I	2015/10/30	2015/10/30	1866	442200	XS0275653870	96776	2015/10/29	2015/10/27
BKRP	I	2015/10/30	2015/10/30	1866	505602	XS0268868139	96776	2015/10/29	2015/10/27
BKRP	I	2015/10/30	2015/10/30	1866	560076		96776	2015/10/29	2015/10/27
BKRP	I	2015/10/30	2015/10/30	1866	563972	XS0268867750	96776	2015/10/29	2015/10/27
BKRP	I	2015/10/30	2015/10/30	1866	642554	RU000A0GH0Q0	96776	2015/10/29	2015/10/27
BKRP	I	2015/10/30	2015/10/30	1866	3897610	RU000A0JSWU9	96776	2015/10/29	2015/10/27
BKRP	U	2015/05/13	2015/10/30	1803	1411325	US70336TAA25	113890	2015/05/12	2015/05/12
BKRP	U	2015/05/13	2015/10/30	1803	1892631	US70336TAC80	113890	2015/05/12	2015/05/12
BKRP	U	2015/05/13	2015/10/30	1803	1894829		113890	2015/05/12	2015/05/12
BKRP	U	2015/05/13	2015/10/30	1803	3858225	US70336TAB08	113890	2015/05/12	2015/05/12
BKRP	U	2015/05/13	2015/10/30	1803	4168221	US70336TAD63	113890	2015/05/12	2015/05/12
BKRP	U	2015/05/13	2015/10/30	1803	4179480	US70336TAE47	113890	2015/05/12	2015/05/12
BKRP	U	2015/05/13	2015/10/30	1803	4559038	USU70434AA00	113890	2015/05/12	2015/05/12
BKRP	U	2015/09/09	2015/10/30	1849	971469	US74837NAC74	38126	2015/09/09	2015/09/09
BKRP	U	2015/09/09	2015/10/30	1849	1287861	US74837NAA19	38126	2015/09/09	2015/09/09
BKRP	U	2015/09/09	2015/10/30	1849	4074935	US74840DAA81	38126	2015/09/09	2015/09/09
BKRP	U	2015/09/09	2015/10/30	1849	4074939	USU7487DAA38	38126	2015/09/09	2015/09/09
BKRP	U	2015/09/09	2015/10/30	1849	4074941	USU7487DAB11	38126	2015/09/09	2015/09/09
BKRP	U	2015/09/09	2015/10/30	1849	4074943	US74840DAC48	38126	2015/09/09	2015/09/09
BKRP	U	2015/09/09	2015/10/30	1849	4097146	US74837NAB91	38126	2015/09/09	2015/09/09
BKRP	U	2015/09/09	2015/10/30	1849	4099341	US74840DAB64	38126	2015/09/09	2015/09/09
BKRP	U	2015/09/09	2015/10/30	1849	4173373	USU74863AA69	38126	2015/09/09	2015/09/09
EDI_ENDOFFILE
