EDI_FRNFX_20151031
TableName	Actflag	Created	Changed	FrnfxID	SecID	ISIN	EffectiveDate	OldFRNType	OldFRNIndexBenchmark	OldFrnMargin	OldMinimumInterestRate	OldMaximumInterestRate	OldRounding	NewFRNType	NewFRNindexBenchmark	NewFrnMargin	NewMinimumInterestRate	NewMaximumInterestRate	NewRounding	Eventtype	OldFrnIntAdjFreq	NewFrnIntAdjFreq
FRNFX	U	2013/12/05	2015/10/30	50700	4154845	IT0004974165	2015/11/29	BASIC	EURIBOR3M	0.15000				CAP	EURIBOR3M	0.15000		4.00000		FRNFX		
FRNFX	I	2015/10/30	2015/10/30	61448	4635623	XS1309542436	2015/10/30	BASIC		0.45000				FLR	EURIBOR1M	0.45000				CORR		
FRNFX	I	2015/10/30	2015/10/30	61449	4619258	US3130A6LC95	2025/10/29	COLLAR	USDLIBOR6M			4.00000		COLLAR	USDLIBOR6M			8.00000		FRNFX		
FRNFX	I	2015/10/30	2015/10/30	61450	4635764	US61760QHX51	2017/10/30	COLLAR	USDLIBOR3M	0.50000		2.50000		COLLAR	USDLIBOR3M	0.50000		3.00000		FRNFX		
FRNFX	I	2015/10/30	2015/10/30	61451	4176046	US3133EDDB56	2014/01/15	FLR	PR					FLR	PR	-3.05000				CORR		
FRNFX	I	2015/10/30	2015/10/30	61452	4634655	US3133EFMZ71	2015/10/30	BASIC	USDLIBOR1M	0.12000				FLR	USDLIBOR1M	0.12000				CORR		
FRNFX	I	2015/10/30	2015/10/30	61453	4629511	US3133EFLT21	2015/10/29	BASIC	USDLIBOR1M	0.02500				FLR	USDLIBOR1M	0.02500				CORR		
FRNFX	I	2015/10/30	2015/10/30	61454	4628482	US3133EFLK12	2015/10/27	BASIC	USDLIBOR1M	0.02500				FLR	USDLIBOR1M	0.02500				CORR		
FRNFX	I	2015/10/30	2015/10/30	61455	4619220	XS1272648137	2015/10/02	BASIC	GBPLIBOR3M	4.50000				DC	GBPLIBOR3M	4.50000				CORR		
FRNFX	I	2015/10/30	2015/10/30	61456	4633296	US22546VNM45	2015/10/29	BASIC						COLLAR	RUSS2000			9.00000		CORR		
FRNFX	I	2015/10/30	2015/10/30	61457	4633222	US22546VP596	2015/10/29	BASIC						COLLAR	BSS			14.50000		CORR		
FRNFX	I	2015/10/30	2015/10/30	61458	4633226	US22546VN856	2015/10/28	BASIC	BSI					COLLAR	BSI			7.00000		CORR		
FRNFX	I	2015/10/30	2015/10/30	61459	4633290	US22546VND46	2015/10/28	BASIC	BSI					COLLAR	BSI			6.85000		CORR		
EDI_ENDOFFILE
