EDI_RDNOM_20151031
TableName	Actflag	Created	Changed	RdnomID	SecID	ISIN	EffectiveDate	OldDenomination1	OldDenomination2	OldDenomination3	OldDenomination4	OldDenomination5	OldDenomination6	OldDenomination7	OldMinimumDenomination	OldDenominationMultiple	NewDenomination1	NewDenomination2	NewDenomination3	NewDenomination4	NewDenomination5	NewDenomination6	NewDenomination7	NewMinimumDenomination	NewDenominationMultiple	Notes
RDNOM	I	2015/10/30	2015/10/30	65485	1493591	XS0434519954	2015/03/08	24000.000000							24000.000000		24200.000000							24200.000000		
RDNOM	I	2015/10/30	2015/10/30	65486	1511690	XS0441116919	2015/03/09	23800.000000							23800.000000		24000.000000							24000.000000		
RDNOM	I	2015/10/30	2015/10/30	65487	1522890	XS0445619488	2015/03/06	23000.000000							23000.000000		23800.000000							23800.000000		
RDNOM	I	2015/10/30	2015/10/30	65488	4632026	JP1745671FB1	2015/10/29	50000.000000									10000000.000000									
RDNOM	I	2015/10/30	2015/10/30	65489	4632034	JP326497AFB6	2015/10/29	1000.000000									10000000.000000									
RDNOM	I	2015/10/30	2015/10/30	65490	4630477	JP351265QFA3	2015/10/29	1000.000000									10000000.000000									
RDNOM	I	2015/10/30	2015/10/30	65491	3138048	IN1020110079	2011/10/06	10000.000000							10000.000000	10000	100.000000							10000.000000	10000	
RDNOM	I	2015/10/30	2015/10/30	65492	4260561	XS1065370543	2014/05/10	1.000000							5000.000000		5000.000000							5000.000000		
RDNOM	I	2015/10/30	2015/10/30	65493	4377290	AU3FN0025367	2014/11/06	200000.000000									100000.000000									
RDNOM	I	2015/10/30	2015/10/30	65494	4634802	FR0013044278	2015/10/29	1.000000								100000	100000.000000								100000	
RDNOM	I	2015/10/30	2015/10/30	65495	4592629	XS1135669494	2015/09/01	1000.000000									1000.000000							10000.000000		
RDNOM	I	2015/10/30	2015/10/30	65496	4607116	XS1251209620	2015/09/26	1000.000000							1000.000000		1.000000									
RDNOM	I	2015/10/30	2015/10/30	65497	4619220	XS1272648137	2015/10/02	1000.000000									1.000000									
RDNOM	I	2015/10/30	2015/10/30	65498	4202334	BRBTGYDBS002	2014/01/18	100000.000000									234700.000000									
RDNOM	I	2015/10/30	2015/10/30	65499	4632838	HK0000271533	2015/10/30	10000.000000							1000000.000000	10000	1000000.000000							1000000.000000	10000	
RDNOM	I	2015/10/30	2015/10/30	65500	4616815	XS1300367916	2015/10/28	100000.000000									1000000.000000									
RDNOM	I	2015/10/30	2015/10/30	65501	4633129	XS1313593060	2015/10/31	100000.000000							100000.000000	100000	1000.000000							100000.000000	100000	
RDNOM	I	2015/10/30	2015/10/30	65502	4615392	DE000DK0FMV2	2015/07/30	1.000000									1000.000000							1000.000000		
RDNOM	I	2015/10/30	2015/10/30	65503	3997339	XS0839780581	2013/05/21	50000.000000									1000.000000							50000.000000		
EDI_ENDOFFILE
