EDI_CTCHG_20151031
TableName	Actflag	Created	Changed	CtChgID	SecID	ISIN	EffectiveDate	OldResultantRatio	NewResultantRatio	OldSecurityRatio	NewSecurityRatio	OldCurrency	NewCurrency	OldCurPair	NewCurPair	OldConversionPrice	NewConversionPrice	ResSectyCD	OldResSecID	NewResSecID	EventType	RelEventID	OldFromDate	NewFromDate	OldTodate	NewToDate	ConvtID	OldFXRate	NewFXRate	OldPriceAsPercent	NewPriceAsPercent	Notes
CTCHG	I	2015/10/30	2015/10/30	7190	4634472	US29266SAB25	2015/10/29		1.0000000		89.4314000	USD	USD			11.18000	11.18175	EQS	41797	41797	CORR		2015/11/03	2015/11/03	2020/10/31	2020/10/31	23382					
CTCHG	I	2015/10/30	2015/10/30	7191	2878281	CA04623RAA73	2015/10/29	1.0000000	1.0000000	392.1569000	1538.4615384	CAD	CAD			2.55000	0.65000	EQS	63953	63953	CTCHG		2011/07/28	2015/11/16	2016/07/30	2016/07/30	8308					AS on 29/10/2015<BR><BR>Aston Hill Financial Inc. (`Aston Hill` or the `Company`) announces that holders of its 6% convertible unsecured subordinated debentures due July 31, 2016 (the `Debentures`) approved the previously announced amendments to the Debentures (the `Amendments`) at a special meeting held today. The resolution approving the Amendments was passed by 93% of the votes cast in person or by proxy at the meeting. As a result, the trust indenture dated July 27, 2011 governing the Debentures (the `Indenture`) will be amended to extend the maturity date of the Debentures from July 31, 2016 to January 31, 2019, reduce the conversion price from USD2.55 per share to USD0.65 per share, increase the interest rate from 6.00% to 6.50% per annum effective November 16, 2015, and other than with respect to the previously announced partial redemption (the `Partial Redemption`), restrict the Company from exercising its right to redeem any Debentures until July 31, 2017.
EDI_ENDOFFILE
